com/springboot/demo/airportObj/weather/datasource/TAFS_Data.class
com/weather/xml/tafs/TurbulenceCondition.class
com/weather/xml/tafs/Temperature.class
com/weather/xml/metar/QualityControlFlags.class
com/weather/xml/tafs/Errors.class
com/springboot/demo/airportObj/weather/datasource/WeatherData.class
com/springboot/demo/airportObj/weather/SocketReqController$1.class
com/springboot/demo/airportObj/weather/datasource/Notam_Data.class
com/springboot/demo/airportObj/weather/WeatherBLL.class
com/springboot/demo/airportObj/weather/datasource/ReportType.class
com/springboot/demo/airportObj/weather/KafkaController.class
com/springboot/demo/airportObj/weather/WeatherRetriever.class
com/springboot/demo/airportObj/App.class
com/weather/xml/metar/Errors.class
com/weather/xml/metar/ObjectFactory.class
com/weather/xml/tafs/ObjectFactory.class
com/weather/xml/tafs/Request.class
com/springboot/demo/airportObj/weather/datasource/Notam_DataMap.class
com/springboot/demo/airportObj/weather/WeatherController.class
com/weather/xml/metar/Warnings.class
com/weather/xml/tafs/Warnings.class
com/springboot/demo/airportObj/weather/datasource/Forecast.class
com/weather/xml/tafs/Data.class
com/springboot/demo/airportObj/weather/ITafsRepo.class
com/weather/xml/metar/Response.class
com/weather/xml/tafs/Forecast.class
com/weather/xml/tafs/Response.class
com/weather/xml/tafs/SkyCondition.class
com/weather/xml/metar/DataSource.class
com/springboot/demo/airportObj/weather/datasource/METAR_Data.class
com/springboot/demo/airportObj/weather/datasource/MetarDoc.class
com/weather/xml/metar/METAR.class
com/weather/xml/tafs/IcingCondition.class
com/weather/xml/metar/SkyCondition.class
com/springboot/demo/airportObj/weather/WebSocketConfig.class
com/springboot/demo/airportObj/weather/datasource/Notam_DataBody.class
com/springboot/demo/airportObj/weather/SocketReqController.class
com/weather/xml/tafs/DataSource.class
com/weather/xml/metar/Request.class
com/springboot/demo/airportObj/weather/IWeatherListener.class
com/weather/xml/tafs/TAF.class
com/weather/xml/metar/Data.class
com/springboot/demo/airportObj/weather/KafkaController$1.class
com/springboot/demo/airportObj/weather/IMetarRepo.class
